<?xml version="1.0" encoding="utf-8"?>
<!-- Generator: Adobe Illustrator 22.0.1, SVG Export Plug-In . SVG Version: 6.00 Build 0)  -->
<svg version="1.1" xmlns="http://www.w3.org/2000/svg" xmlns:xlink="http://www.w3.org/1999/xlink" x="0px" y="0px"
	 viewBox="0 0 83.287 79.833" enable-background="new 0 0 83.287 79.833" xml:space="preserve">
<metadata><?xpacket begin="﻿" id="W5M0MpCehiHzreSzNTczkc9d"?>
<x:xmpmeta xmlns:x="adobe:ns:meta/" x:xmptk="Adobe XMP Core 5.6-c143 79.161210, 2017/08/11-10:28:36        ">
   <rdf:RDF xmlns:rdf="http://www.w3.org/1999/02/22-rdf-syntax-ns#">
      <rdf:Description rdf:about=""/>
   </rdf:RDF>
</x:xmpmeta>
                                                                                                    
                                                                                                    
                                                                                                    
                                                                                                    
                                                                                                    
                                                                                                    
                                                                                                    
                                                                                                    
                                                                                                    
                                                                                                    
                                                                                                    
                                                                                                    
                                                                                                    
                                                                                                    
                                                                                                    
                                                                                                    
                                                                                                    
                                                                                                    
                                                                                                    
                                                                                                    
                           
<?xpacket end="w"?></metadata>
<g id="Lager_1" display="none">
	<g display="inline">
		<path fill="#BB8E78" d="M22.54,72.182h33.942c0.281-0.231,0.559-0.466,0.836-0.7c-0.57-0.308-1.324-0.459-2.409-0.462
			c-10.243-0.033-20.486-0.023-30.729-0.009c-0.556,0-1.113,0.169-1.669,0.261C22.52,71.574,22.531,71.878,22.54,72.182"/>
		<path fill="#BB8E78" d="M7.731,57.464c0.242-0.006,0.482-0.011,0.724-0.017c0.077-0.137,0.222-0.275,0.224-0.412
			c0.019-10.984,0.055-21.969-0.022-32.953c-0.006-0.803-0.654-1.982-1.333-2.307c-0.85-0.405-2.055-0.192-3.069-0.024
			c-0.157,0.025-0.279,1.765-0.14,1.807c0.858,0.262,1.795,0.256,2.705,0.355c0.145,0.015,0.279,0.114,0.911,0.387V57.464z"/>
		<path fill="#BB8E78" d="M1.938,71.662c0.003,6.333,0.003,6.333,6.338,6.336C14.56,78,14.56,78,14.561,71.696
			c0-6.453,0-6.453-6.373-6.448c-6.251,0.004-6.251,0.004-6.25,6.172V71.662z M2.875,63.921c3.775,0.082,7.553,0.026,11.544,0.026
			c0.058-1.132,0.136-1.988,0.136-2.843c0.005-19.916-0.004-39.833,0.014-59.749c0.226-0.141,0.464-0.261,0.684-0.413
			c0.198,0.009,0.397-0.016,0.595-0.013c0.009,20.083,0.019,40.168-0.049,60.251c-0.008,2.251,0.665,2.821,2.85,2.809
			c15.183-0.083,30.368-0.06,45.552-0.021c0.784,0.003,1.465-0.092,2.099-0.322c1.369,0.122,2.744,0.109,4.092-0.118
			c-0.029,0.13-0.042,0.271-0.038,0.423h2.885c3.138,0,6.276-0.001,9.414-0.001c-0.098,0.43-0.18,0.863-0.25,1.3
			c-0.435,0-0.869-0.001-1.304-0.001h-2.697c0.012,0.038,0.012,0.07,0.022,0.108c-0.024-0.002-0.047-0.003-0.071-0.006
			c-2.33-0.489-4.825-0.481-7.313-0.284c-2.144,0.021-4.263,0.167-6.262,0.509c-0.252-0.145-0.506-0.256-0.722-0.257
			c-15.427-0.083-30.854-0.053-46.28-0.086c-1.492-0.003-1.971,0.589-1.948,2.008c0.057,3.769,0.019,7.54,0.019,11.816
			c-2.898,0-5.68,0.002-8.464,0c-6.598-0.006-6.597-0.006-6.589-6.522c0.003-2.169,0.071-4.339-0.015-6.504
			C0.718,64.48,1.281,63.886,2.875,63.921"/>
		<path fill="#BB8E78" d="M22.54,72.182h33.942c0.281-0.231,0.559-0.466,0.836-0.7c-0.57-0.308-1.324-0.459-2.409-0.462
			c-10.243-0.033-20.486-0.023-30.729-0.009c-0.556,0-1.113,0.169-1.669,0.261C22.52,71.574,22.531,71.878,22.54,72.182"/>
		<path fill="#BB8E78" d="M7.731,57.464V24.3c-0.632-0.273-0.766-0.372-0.911-0.387c-0.91-0.099-1.847-0.093-2.705-0.355
			c-0.139-0.042-0.017-1.782,0.14-1.807c1.014-0.168,2.219-0.381,3.069,0.024c0.679,0.325,1.327,1.504,1.333,2.307
			c0.077,10.984,0.041,21.969,0.022,32.953c-0.002,0.137-0.147,0.275-0.224,0.412C8.213,57.453,7.973,57.458,7.731,57.464"/>
		<path fill="#BB8E78" d="M23.034,32.216c-0.113,1.111-0.274,1.966-0.277,2.823c-0.018,6.494,0.052,12.989-0.034,19.483
			c-0.028,2.011,0.507,2.862,2.714,2.821c6.61-0.122,13.225-0.035,19.838-0.048c0.78-0.002,1.561-0.115,2.567-0.195
			c-0.169-0.671-0.402-1.114-0.359-1.528c0.068-0.654,0.143-1.472,0.556-1.874c0.305-0.296,1.401-0.279,1.704,0.027
			c0.486,0.491,0.999,1.498,0.794,2c-0.355,0.869-1.131,1.736-1.959,2.196c-0.786,0.438-1.866,0.475-2.817,0.48
			c-7.258,0.038-14.518-0.021-21.775,0.056c-1.768,0.02-2.41-0.511-2.391-2.321c0.082-7.537,0.05-15.075,0.034-22.611
			c-0.003-1.743,0.365-3.293,2.313-3.674c0.727-0.142,1.669,0.201,2.329,0.615c0.258,0.162,0.236,1.461-0.047,1.643
			c-0.565,0.362-1.398,0.334-2.125,0.414C23.882,32.548,23.645,32.4,23.034,32.216"/>
	</g>
</g>
<g id="Lager_2" display="none">
	<g display="inline">
		<defs>
			<rect id="SVGID_1_" x="0.85" width="81.879" height="78.129"/>
		</defs>
		<clipPath id="SVGID_2_">
			<use xlink:href="#SVGID_1_"  overflow="visible"/>
		</clipPath>
		<path clip-path="url(#SVGID_2_)" fill="#BB8E78" d="M22.616,6.876h33.942c0.281,0.231,0.559,0.466,0.836,0.7
			c-0.57,0.308-1.324,0.459-2.409,0.462C44.742,8.071,34.499,8.061,24.256,8.047c-0.556,0-1.113-0.169-1.669-0.261
			C22.596,7.484,22.607,7.18,22.616,6.876"/>
		<path clip-path="url(#SVGID_2_)" fill="#BB8E78" d="M7.807,21.594c0.242,0.006,0.482,0.01,0.724,0.017
			c0.077,0.137,0.222,0.275,0.224,0.412C8.774,33.007,8.81,43.992,8.733,54.975c-0.006,0.804-0.654,1.983-1.333,2.308
			c-0.85,0.405-2.055,0.192-3.069,0.024c-0.157-0.025-0.279-1.765-0.14-1.807c0.858-0.262,1.795-0.256,2.705-0.355
			c0.145-0.015,0.279-0.114,0.911-0.387V21.594z"/>
		<path clip-path="url(#SVGID_2_)" fill="#BB8E78" d="M2.014,7.396C2.017,1.063,2.017,1.063,8.352,1.06
			c6.284-0.002,6.284-0.002,6.285,6.302c0,6.453,0,6.453-6.373,6.448c-6.251-0.004-6.251-0.004-6.25-6.172V7.396z M2.951,15.137
			c3.775-0.082,7.553-0.026,11.544-0.026c0.058,1.132,0.136,1.988,0.136,2.843c0.005,19.916-0.004,39.833,0.014,59.749
			c0.226,0.141,0.464,0.261,0.684,0.413c0.198-0.009,0.397,0.016,0.595,0.013c0.009-20.083,0.019-40.168-0.049-60.251
			c-0.008-2.251,0.665-2.821,2.85-2.809c15.183,0.083,30.368,0.06,45.552,0.021c0.784-0.003,1.465,0.092,2.099,0.322
			c1.369-0.122,2.744-0.109,4.092,0.118c-0.029-0.13-0.042-0.271-0.038-0.423h2.885c3.138,0,6.276,0.001,9.414,0.001
			c-0.098-0.43-0.18-0.863-0.25-1.3c-0.435,0-0.869,0.001-1.304,0.001h-2.697c0.012-0.038,0.012-0.07,0.022-0.108
			c-0.024,0.002-0.047,0.003-0.071,0.006c-2.33,0.489-4.825,0.481-7.313,0.285c-2.144-0.022-4.263-0.168-6.262-0.51
			c-0.252,0.145-0.506,0.256-0.722,0.257c-15.427,0.083-30.854,0.053-46.28,0.086c-1.492,0.003-1.971-0.589-1.948-2.008
			c0.057-3.769,0.019-7.54,0.019-11.816c-2.898,0-5.68-0.002-8.464,0C0.861,0.007,0.862,0.007,0.87,6.523
			c0.003,2.169,0.071,4.339-0.015,6.504C0.794,14.578,1.357,15.172,2.951,15.137"/>
		<path clip-path="url(#SVGID_2_)" fill="#BB8E78" d="M22.616,6.876h33.942c0.281,0.231,0.559,0.466,0.836,0.7
			c-0.57,0.308-1.324,0.459-2.409,0.462C44.742,8.071,34.499,8.061,24.256,8.047c-0.556,0-1.113-0.169-1.669-0.261
			C22.596,7.484,22.607,7.18,22.616,6.876"/>
		<path clip-path="url(#SVGID_2_)" fill="#BB8E78" d="M7.807,21.594v33.164c-0.632,0.273-0.766,0.372-0.911,0.387
			c-0.91,0.099-1.847,0.093-2.705,0.355c-0.139,0.042-0.017,1.782,0.14,1.807c1.014,0.168,2.219,0.381,3.069-0.024
			c0.679-0.325,1.327-1.504,1.333-2.308C8.81,43.992,8.774,33.007,8.755,22.023c-0.002-0.137-0.147-0.275-0.224-0.412
			C8.289,21.604,8.049,21.6,7.807,21.594"/>
		<path clip-path="url(#SVGID_2_)" fill="#BB8E78" d="M23.109,46.842c-0.113-1.111-0.274-1.966-0.277-2.823
			c-0.018-6.494,0.052-12.989-0.034-19.483c-0.028-2.011,0.507-2.862,2.714-2.821c6.61,0.122,13.225,0.035,19.838,0.048
			c0.78,0.002,1.561,0.115,2.567,0.195c-0.169,0.671-0.402,1.114-0.359,1.528c0.068,0.654,0.143,1.472,0.556,1.874
			c0.305,0.296,1.401,0.279,1.704-0.027c0.486-0.491,0.999-1.498,0.794-2c-0.355-0.869-1.131-1.736-1.959-2.196
			c-0.786-0.438-1.866-0.475-2.817-0.48c-7.258-0.038-14.518,0.021-21.775-0.056c-1.768-0.02-2.41,0.511-2.391,2.321
			c0.082,7.537,0.05,15.075,0.034,22.611c-0.003,1.743,0.365,3.293,2.313,3.674c0.727,0.142,1.669-0.201,2.329-0.615
			c0.258-0.162,0.236-1.461-0.047-1.643c-0.565-0.362-1.398-0.334-2.125-0.414C23.957,46.51,23.72,46.658,23.109,46.842"/>
	</g>
</g>
<g id="Lager_3" display="none">
	<g display="inline">
		<defs>
			<rect id="SVGID_3_" x="1.095" y="0.891" width="81.003" height="78.153"/>
		</defs>
		<clipPath id="SVGID_4_">
			<use xlink:href="#SVGID_3_"  overflow="visible"/>
		</clipPath>
		<path clip-path="url(#SVGID_4_)" fill="#BB8E78" d="M75.221,57.279V23.337c-0.231-0.281-0.466-0.559-0.7-0.836
			c-0.308,0.57-0.459,1.324-0.462,2.409c-0.033,10.243-0.023,20.486-0.009,30.729c0,0.556,0.169,1.113,0.261,1.669
			C74.613,57.299,74.917,57.288,75.221,57.279"/>
		<path clip-path="url(#SVGID_4_)" fill="#BB8E78" d="M60.504,72.088c-0.006-0.242-0.011-0.482-0.017-0.724
			c-0.137-0.077-0.275-0.222-0.412-0.224c-10.984-0.019-21.969-0.055-32.953,0.022c-0.803,0.006-1.982,0.654-2.307,1.333
			c-0.405,0.85-0.192,2.055-0.024,3.069c0.025,0.157,1.765,0.279,1.807,0.14c0.262-0.858,0.256-1.795,0.355-2.705
			c0.015-0.145,0.114-0.279,0.387-0.911H60.504z"/>
		<path clip-path="url(#SVGID_4_)" fill="#BB8E78" d="M74.702,77.881c6.333-0.003,6.333-0.003,6.336-6.338
			c0.002-6.284,0.002-6.284-6.302-6.285c-6.453,0-6.453,0-6.448,6.373c0.004,6.251,0.004,6.251,6.172,6.25H74.702z M66.961,76.944
			c0.082-3.775,0.026-7.553,0.026-11.544c-1.132-0.058-1.988-0.136-2.843-0.136c-19.916-0.005-42.707,0.004-62.623-0.014
			c-0.141-0.226-0.261-0.464-0.413-0.684c0.009-0.198-0.016-0.397-0.013-0.595c20.083-0.009,43.042-0.019,63.125,0.049
			c2.251,0.008,2.821-0.665,2.809-2.85c-0.083-15.184-0.06-30.368-0.021-45.552c0.003-0.784-0.092-1.466-0.322-2.099
			c0.122-1.369,0.109-2.744-0.118-4.092c0.13,0.029,0.271,0.042,0.423,0.038V6.58c0-3.138-0.001-2.55-0.001-5.688
			c0.43,0.098,0.863,0.18,1.3,0.25c0,0.435-0.001,0.869-0.001,1.304V1.417c0.038-0.012,0.07-0.012,0.108-0.022
			c-0.002,0.024-0.003,0.047-0.006,0.071c-0.489,2.33-0.481,4.825-0.285,7.313c0.022,2.144,0.168,4.263,0.51,6.262
			c-0.145,0.252-0.256,0.506-0.257,0.722c-0.083,15.427-0.053,30.854-0.086,46.28c-0.003,1.492,0.589,1.971,2.008,1.948
			c3.769-0.057,7.54-0.019,11.816-0.019c0,2.898,0.002,5.68,0,8.464c-0.006,6.598-0.006,6.597-6.522,6.589
			c-2.169-0.003-4.339-0.071-6.504,0.015C67.52,79.101,66.926,78.538,66.961,76.944"/>
		<path clip-path="url(#SVGID_4_)" fill="#BB8E78" d="M75.221,57.279V23.337c-0.231-0.281-0.466-0.559-0.7-0.836
			c-0.308,0.57-0.459,1.324-0.462,2.409c-0.033,10.243-0.023,20.486-0.009,30.729c0,0.556,0.169,1.113,0.261,1.669
			C74.613,57.299,74.917,57.288,75.221,57.279"/>
		<path clip-path="url(#SVGID_4_)" fill="#BB8E78" d="M60.504,72.088H27.34c-0.273,0.632-0.372,0.766-0.387,0.911
			c-0.099,0.91-0.093,1.847-0.355,2.705c-0.042,0.139-1.782,0.017-1.807-0.14c-0.168-1.014-0.381-2.219,0.024-3.069
			c0.325-0.679,1.504-1.327,2.307-1.333c10.984-0.077,21.969-0.041,32.953-0.022c0.137,0.002,0.275,0.147,0.412,0.224
			C60.493,71.606,60.498,71.846,60.504,72.088"/>
		<path clip-path="url(#SVGID_4_)" fill="#BB8E78" d="M35.256,56.785c1.111,0.113,1.966,0.274,2.823,0.277
			c6.494,0.018,12.989-0.052,19.483,0.034c2.011,0.028,2.862-0.507,2.821-2.714c-0.122-6.61-0.035-13.225-0.048-19.838
			c-0.002-0.78-0.115-1.561-0.195-2.567c-0.671,0.169-1.114,0.402-1.528,0.359c-0.654-0.068-1.472-0.143-1.874-0.556
			c-0.296-0.305-0.279-1.401,0.027-1.704c0.491-0.486,1.498-0.999,2-0.794c0.869,0.355,1.736,1.131,2.196,1.959
			c0.438,0.786,0.475,1.866,0.48,2.817c0.038,7.258-0.021,14.518,0.056,21.775c0.02,1.768-0.511,2.41-2.321,2.391
			c-7.537-0.082-15.075-0.05-22.611-0.034c-1.743,0.003-3.293-0.365-3.674-2.313c-0.142-0.727,0.201-1.669,0.615-2.329
			c0.162-0.258,1.461-0.236,1.643,0.047c0.362,0.565,0.334,1.398,0.414,2.125C35.588,55.937,35.44,56.174,35.256,56.785"/>
	</g>
</g>
<g id="Lager_4">
	<g>
		<path fill="#BB8E78" d="M75.277,22.09v33.942c-0.231,0.281-0.466,0.559-0.7,0.836c-0.308-0.57-0.459-1.324-0.462-2.409
			c-0.033-10.243-0.023-20.486-0.009-30.729c0-0.556,0.169-1.113,0.261-1.669C74.669,22.07,74.973,22.081,75.277,22.09"/>
		<path fill="#BB8E78" d="M60.56,7.281c-0.006,0.242-0.011,0.482-0.017,0.724c-0.137,0.077-0.275,0.222-0.412,0.224
			C49.147,8.248,38.162,8.284,27.178,8.207c-0.803-0.006-1.982-0.654-2.307-1.333c-0.405-0.85-0.192-2.055-0.024-3.069
			c0.025-0.157,1.765-0.279,1.807-0.14c0.262,0.858,0.256,1.795,0.355,2.705c0.015,0.145,0.114,0.279,0.387,0.911H60.56z"/>
		<path fill="#BB8E78" d="M74.758,1.488c6.333,0.003,6.333,0.003,6.336,6.338c0.002,6.284,0.002,6.284-6.302,6.285
			c-6.453,0-6.453,0-6.448-6.373c0.004-6.251,0.004-6.251,6.172-6.25H74.758z M67.017,2.425c0.082,3.775,0.026,7.553,0.026,11.544
			c-1.132,0.058-1.988,0.136-2.843,0.136c-19.916,0.005-42.763-0.004-62.679,0.014c-0.141,0.226-0.261,0.464-0.413,0.684
			c0.009,0.198-0.016,0.397-0.013,0.595c20.083,0.009,43.098,0.019,63.181-0.049c2.251-0.008,2.821,0.665,2.809,2.85
			c-0.083,15.183-0.06,30.368-0.021,45.552c0.003,0.784-0.092,1.465-0.322,2.099c0.122,1.369,0.109,2.744-0.118,4.092
			c0.13-0.029,0.271-0.042,0.423-0.038v2.885c0,3.138-0.001,2.979-0.001,6.117c0.43-0.098,0.863-0.18,1.3-0.25
			c0-0.435-0.001-0.869-0.001-1.304v0.6c0.038,0.012,0.07,0.012,0.108,0.022c-0.002-0.024-0.003-0.047-0.006-0.071
			c-0.489-2.33-0.481-4.825-0.285-7.313c0.022-2.144,0.168-4.263,0.51-6.262c-0.145-0.252-0.256-0.506-0.257-0.722
			c-0.083-15.427-0.053-30.854-0.086-46.28c-0.003-1.492,0.589-1.971,2.008-1.948c3.769,0.057,7.54,0.019,11.816,0.019
			c0-2.898,0.002-5.68,0-8.464c-0.006-6.598-0.006-6.597-6.522-6.589c-2.169,0.003-4.339,0.071-6.504-0.015
			C67.576,0.268,66.982,0.831,67.017,2.425"/>
		<path fill="#BB8E78" d="M75.277,22.09v33.942c-0.231,0.281-0.466,0.559-0.7,0.836c-0.308-0.57-0.459-1.324-0.462-2.409
			c-0.033-10.243-0.023-20.486-0.009-30.729c0-0.556,0.169-1.113,0.261-1.669C74.669,22.07,74.973,22.081,75.277,22.09"/>
		<path fill="#BB8E78" d="M60.56,7.281H27.396c-0.273-0.632-0.372-0.766-0.387-0.911c-0.099-0.91-0.093-1.847-0.355-2.705
			c-0.042-0.139-1.782-0.017-1.807,0.14c-0.168,1.014-0.381,2.219,0.024,3.069c0.325,0.679,1.504,1.327,2.307,1.333
			c10.984,0.077,21.969,0.041,32.953,0.022c0.137-0.002,0.275-0.147,0.412-0.224C60.549,7.763,60.554,7.523,60.56,7.281"/>
		<path fill="#BB8E78" d="M35.312,22.584c1.111-0.113,1.966-0.274,2.823-0.277c6.494-0.018,12.989,0.052,19.483-0.034
			c2.011-0.028,2.862,0.507,2.821,2.714c-0.122,6.61-0.035,13.225-0.048,19.838c-0.002,0.78-0.115,1.561-0.195,2.567
			c-0.671-0.169-1.114-0.402-1.528-0.359c-0.654,0.068-1.472,0.143-1.874,0.556c-0.296,0.305-0.279,1.401,0.027,1.704
			c0.491,0.486,1.498,0.999,2,0.794c0.869-0.355,1.736-1.131,2.196-1.959c0.438-0.786,0.475-1.866,0.48-2.817
			c0.038-7.258-0.021-14.518,0.056-21.775c0.02-1.768-0.511-2.41-2.321-2.391c-7.537,0.082-15.075,0.05-22.611,0.034
			c-1.743-0.003-3.293,0.365-3.674,2.313c-0.142,0.727,0.201,1.669,0.615,2.329c0.162,0.258,1.461,0.236,1.643-0.047
			c0.362-0.565,0.334-1.398,0.414-2.125C35.644,23.432,35.496,23.195,35.312,22.584"/>
	</g>
</g>
</svg>
