<?xml version="1.0" encoding="utf-8"?>
<!-- Generator: Adobe Illustrator 22.0.1, SVG Export Plug-In . SVG Version: 6.00 Build 0)  -->
<svg version="1.1" id="Lager_1" xmlns="http://www.w3.org/2000/svg" xmlns:xlink="http://www.w3.org/1999/xlink" x="0px" y="0px"
	 viewBox="0 0 131.4 28.2" enable-background="new 0 0 131.4 28.2" xml:space="preserve">
<metadata><?xpacket begin="﻿" id="W5M0MpCehiHzreSzNTczkc9d"?>
<x:xmpmeta xmlns:x="adobe:ns:meta/" x:xmptk="Adobe XMP Core 5.6-c143 79.161210, 2017/08/11-10:28:36        ">
   <rdf:RDF xmlns:rdf="http://www.w3.org/1999/02/22-rdf-syntax-ns#">
      <rdf:Description rdf:about=""/>
   </rdf:RDF>
</x:xmpmeta>
                                                                                                    
                                                                                                    
                                                                                                    
                                                                                                    
                                                                                                    
                                                                                                    
                                                                                                    
                                                                                                    
                                                                                                    
                                                                                                    
                                                                                                    
                                                                                                    
                                                                                                    
                                                                                                    
                                                                                                    
                                                                                                    
                                                                                                    
                                                                                                    
                                                                                                    
                                                                                                    
                           
<?xpacket end="w"?></metadata>
<g>
	<defs>
		<rect id="SVGID_1_" x="-0.1" y="-0.1" width="131.4" height="28.4"/>
	</defs>
	<clipPath id="SVGID_2_">
		<use xlink:href="#SVGID_1_"  overflow="visible"/>
	</clipPath>
	<path clip-path="url(#SVGID_2_)" fill="#FBF2E6" d="M19.1,12.6v-0.3c-1.4-0.5-2.5-1.6-3.4-2.7l-3.8,3.1l0.2,0.3
		c0.2-0.2,0.6-0.4,0.9-0.4c0.6,0,0.6,0.6,0.6,1.5v6.7c0,0.9,0,2.5,2.2,3.9l3.9-3.3L19.6,21c-0.4,0.3-0.6,0.5-1,0.5
		c-0.5,0-0.9-0.4-0.9-1.1V14C17.7,13,18.1,12.6,19.1,12.6"/>
	<path clip-path="url(#SVGID_2_)" fill="#FBF2E6" d="M2.3,13.2h1.1l0,0v5.2l0,0c-1.9,0.7-2.9,2.2-3,4.8c0,2.3,2.5,5.2,6.6,5.2
		c3.4-0.1,6-2.1,6.6-4.6l-0.5-0.1c-0.4,2-2.3,3.3-6.6,3.2c-0.5,0-1.5-0.1-2.1-0.3c-2.4-0.6-3.9-2.2-3.2-4.1c0.5-1.5,2.1-2.1,4.5-1.4
		c1.2,0.4,2.7,1.4,3.3,2.2l4-4.1l-0.3-0.3l-1.1,1.1l0,0c-1.4-1-3.5-1.9-5.3-1.9c-0.3,0-0.5,0-0.8,0l0,0c0.5-0.5,1.3-0.9,2.2-0.9V5.4
		l0,0C7.6,3,8.4,0.6,11,0.5c1.3,0,2.4,1,2.6,2l0,0c-0.7,0-1.4,0.2-2,0.6c-1.5,1-1.9,2.9-1,4.3c0.9,1.4,2.9,1.7,4.4,0.7
		c1.2-0.8,1.6-2.2,1.4-3.5C16,2.2,13.8-0.2,10-0.1C6.4,0,3.4,2.9,3.4,6.6c0,0,0,0,0,0l0,0v3.3l0,0H2.9c-1.9,0-2.6,1.3-3,4.5h0.4
		C0.5,13.2,1.2,13.2,2.3,13.2"/>
	<path clip-path="url(#SVGID_2_)" fill="#FBF2E6" d="M21.5,22c0.2,0,0.4,0,0.5,0.1l0,0c1,0.7,1.6,1.5,2.3,2.4c0.8-0.7,1.6-1.4,2.5-2
		l0,0c0.4-0.3,1-0.5,1.4-0.5c0.2,0,0.4,0,0.5,0.1l0,0c1,0.7,1.6,1.5,2.3,2.4c1.4-1.1,2.7-2.3,4.2-3.3l-0.1-0.4
		c-0.4,0.2-1,0.5-1.4,0.5c-0.9,0-1-0.8-1-1.8V3.1L29,4.3v15.5l0,0c0,0,0,0.1,0,0.1c0,0.4-0.2,0.7-0.5,1c0,0-0.1,0.1-0.2,0.1
		c-0.4,0.3-1,0.5-1.3,0.5c-0.9,0-1-0.8-1-1.8V3.1l-3.8,1.3v15.4l0,0c0,0,0,0.1,0,0.1c0,0.4-0.2,0.7-0.5,1l0,0
		c-0.6,0.5-1.3,0.9-1.9,1.4l0.2,0.3C20.6,22.3,21.2,22,21.5,22"/>
	<path clip-path="url(#SVGID_2_)" fill="#FBF2E6" d="M39.8,12.5c0.6,0.6,1.5,1.4,2.3,1.7v6.6l-1,0.8c-0.1,0.1-0.3,0.2-0.6,0.2
		c-0.5,0-0.7-0.5-0.7-1.3V12.5z M38.2,24.6c1.2-1.1,2.5-2.2,3.9-3.1c0.1,1.3,1.3,2.3,2.4,3.1c1.1-1.1,2.3-2.1,3.6-3.1l-0.2-0.3
		c-0.5,0.2-0.7,0.4-1,0.4c-0.7,0-0.8-1.1-0.8-1.8v-4.7c0,0,0-0.6,0-0.6c0-0.4,0.2-0.7,0.5-1c0,0,0.9-0.7,1.6-1.2L47.9,12
		c-0.4,0.2-0.8,0.4-1,0.4c-0.1,0-0.2,0-0.3-0.1l0,0c-1.7-0.6-3.2-1.7-4-2.7l0,0c-1,1.9-4.5,3-6.8,3c0,0,0,1.3,0,2.8l0,0.1v5.3
		C35.7,22.4,36,23.2,38.2,24.6"/>
	<path clip-path="url(#SVGID_2_)" fill="#FBF2E6" d="M111.8,21.4c-0.6-0.6-1.4-1.3-2.3-1.7v-7.1c1.9,0.4,2.3,1.3,2.3,2.5V21.4z
		 M116.3,12.7L116.3,12.7c-1.9-0.6-3.5-1.8-4.9-3c-1,1.9-3.7,3-5.9,3c0,0,0,6.7,0,6.7c0,0.4-0.2,0.7-0.5,1l0,0
		c-0.5,0.4-1.1,0.8-1.6,1.2l0.2,0.4c0.4-0.2,0.8-0.4,1.1-0.4c0.1,0,0.2,0,0.3,0l0,0c1.9,0.6,3.5,1.8,4.9,3c1-1.9,3.7-3,5.9-3
		c0,0,0-6.7,0-6.7c0-0.4,0.2-0.7,0.5-1c0,0,0.6-0.4,1.1-0.8l-0.2-0.4C116.9,12.8,116.6,12.8,116.3,12.7"/>
	<polygon clip-path="url(#SVGID_2_)" fill="#FBF2E6" points="96.6,24.5 96.6,24.5 96.6,24.5 	"/>
	<path clip-path="url(#SVGID_2_)" fill="#FBF2E6" d="M104.3,12.3c-0.4,0.2-0.8,0.4-1.1,0.4c-0.2,0-0.4,0-0.5-0.1l0,0L91.9,4.4l0,4.6
		l6.5,4.9l0,0v7.6c-0.6-0.6-1.4-1.3-2.3-1.7l0-7.6c-0.6,0.3-1.5,0.5-2.3,0.5c-0.6,0-1.2-0.1-1.7-0.3l0,6.6l0,0v0.2v0.1
		c0,0.4-0.2,0.7-0.5,1c-0.3,0.2-0.7,0.5-1.1,0.8l0.2,0.4c0.2,0,0.3-0.1,0.5-0.1c0.1,0,0.2,0,0.3,0.1l0,0c1.9,0.6,3.5,1.8,4.9,3
		c1-1.9,3.7-3,5.9-3v-5.6l0,0v-1l0,0c0,0,0-0.1,0-0.1c0-0.4,0.2-0.7,0.5-1c0,0,1-0.7,1.6-1.2L104.3,12.3z"/>
	<path clip-path="url(#SVGID_2_)" fill="#FBF2E6" d="M89.7,21.4c-0.5,0-0.9-0.4-0.9-1.3c0,0,0-6.3,0-6.3c0-0.4,0.2-0.7,0.5-1
		c0,0,0.9-0.7,1.6-1.2l-0.2-0.4c-0.4,0.2-0.8,0.4-1.1,0.4c-0.2,0-0.4,0-0.5-0.1l0,0l0,0c-0.8-0.6-1.5-1.3-2-2l-4.4,3.3
		c0-1.8-1.2-2.5-2.5-3.3l-3.1,2.8l0.2,0.4c0.1-0.1,0.2-0.1,0.4-0.1c0.5,0,0.9,0.4,0.9,1.3v6.1c0,1-0.2,1.5-0.9,1.5h-0.4v0.3
		c1.4,0.4,2.5,1.4,3.4,2.6c0.5-1.1,1.4-2.2,2.8-2.6v-0.3c-0.5,0-0.8-0.4-0.8-0.9v-7.4l0.8-0.6c0.2-0.1,0.4-0.2,0.6-0.2
		c0.5,0,0.6,0.6,0.6,1.1v7c0,0.9,0,2.5,2.2,3.9l3-2.5l0,0c0.2-0.2,0.5-0.4,0.5-0.4l-0.2-0.3C90.1,21.4,89.9,21.4,89.7,21.4"/>
	<path clip-path="url(#SVGID_2_)" fill="#FBF2E6" d="M130,21.4c-0.5,0-0.9-0.4-0.9-1.3c0,0,0-6.3,0-6.3c0-0.4,0.2-0.7,0.5-1
		c0,0,1-0.7,1.6-1.2l-0.2-0.4c-0.4,0.2-0.8,0.4-1.1,0.4c-0.2,0-0.4,0-0.5-0.1l0,0l0,0c-0.8-0.6-1.5-1.3-2-2l-4.4,3.3
		c0-1.8-1.2-2.5-2.5-3.3l-3.1,2.9l0.2,0.4c0.1-0.1,0.3-0.2,0.4-0.2c0.5,0,0.9,0.4,0.9,1.3v6.1c0,1-0.2,1.5-0.9,1.5h-0.4v0.3
		c1.4,0.4,2.5,1.4,3.4,2.6c0.5-1.1,1.4-2.2,2.8-2.6v-0.3c-0.5,0-0.8-0.4-0.8-0.9v-7.4l0.8-0.6c0.2-0.1,0.4-0.2,0.6-0.2
		c0.5,0,0.6,0.6,0.6,1.1v7c0,0.9,0,2.5,2.2,3.9l3.9-3.3l-0.1-0.3C130.7,21.2,130.4,21.4,130,21.4"/>
	<path clip-path="url(#SVGID_2_)" fill="#FBF2E6" d="M71.3,21.4c-0.6-0.6-1.4-1.3-2.3-1.7v-7.1c1.9,0.4,2.3,1.3,2.3,2.5V21.4z
		 M75.8,12.7L75.8,12.7c-1.9-0.6-3.5-1.8-4.9-3c-1,1.9-3.7,3-5.9,3c0,0,0,6.7,0,6.7l0,0.1c0,0.9-0.2,1.7-0.4,2.4l0,0
		c-0.7,1.8-2.9,4.2-7.1,4.1c-0.5,0-1.5-0.1-2.1-0.3c-2.4-0.6-3.7-1.6-3.2-3.6c0.4-1.6,2.1-2.1,4.5-1.4c1.2,0.4,2.7,1.4,3.3,2.2
		l4-4.1l-0.3-0.3l-1.1,1.1l0,0c-1.4-1-3.5-1.9-5.3-1.9c-0.3,0-0.5,0-0.8,0l0,0c0.5-0.5,1.3-0.9,2.2-0.9V8.3l0,0V6.1v0
		c0-2.4,0.8-4.8,3.4-4.9c1.3,0,2.4,1,2.6,2l0,0c-0.7,0-1.4,0.2-2,0.6c-1.5,1-1.9,2.9-1,4.3c0.9,1.4,2.9,1.7,4.4,0.7
		c1.2-0.8,1.6-2.2,1.4-3.5c-0.3-2.5-2.6-4.8-6.3-4.8c-3.6,0.1-6.6,3-6.6,6.7c0,0,0,0,0,0l0,0v1l0,0v1.2l0,0h-0.5
		c-1.9,0-2.6,1.3-3,4.5h0.4c0.3-1.3,1-1.3,2-1.3h1.1l0,0V18l0,0c-1.9,0.7-2.9,2.2-3,4.8c0,2.3,2.5,4.7,6.6,4.7c3.2,0,6.1-3,6.9-5.3
		l0,0c0.1-0.2,0.1-0.3,0.2-0.5l0,0c1.6,0.7,3.1,1.7,4.3,2.8c1-1.9,3.7-3,5.9-3c0,0,0-6.7,0-6.7c0-0.4,0.2-0.7,0.5-1
		c0,0,0.6-0.4,1.1-0.8l-0.3-0.4C76.4,12.8,76.2,12.8,75.8,12.7"/>
</g>
</svg>
