<?xml version="1.0" encoding="utf-8"?>
<!-- Generator: Adobe Illustrator 22.0.1, SVG Export Plug-In . SVG Version: 6.00 Build 0)  -->
<svg version="1.1" id="Lager_1" xmlns="http://www.w3.org/2000/svg" xmlns:xlink="http://www.w3.org/1999/xlink" x="0px" y="0px"
	 viewBox="0 0 390.374 71.435" enable-background="new 0 0 390.374 71.435" xml:space="preserve">
<metadata><?xpacket begin="﻿" id="W5M0MpCehiHzreSzNTczkc9d"?>
<x:xmpmeta xmlns:x="adobe:ns:meta/" x:xmptk="Adobe XMP Core 5.6-c143 79.161210, 2017/08/11-10:28:36        ">
   <rdf:RDF xmlns:rdf="http://www.w3.org/1999/02/22-rdf-syntax-ns#">
      <rdf:Description rdf:about=""/>
   </rdf:RDF>
</x:xmpmeta>
                                                                                                    
                                                                                                    
                                                                                                    
                                                                                                    
                                                                                                    
                                                                                                    
                                                                                                    
                                                                                                    
                                                                                                    
                                                                                                    
                                                                                                    
                                                                                                    
                                                                                                    
                                                                                                    
                                                                                                    
                                                                                                    
                                                                                                    
                                                                                                    
                                                                                                    
                                                                                                    
                           
<?xpacket end="w"?></metadata>
<g>
	<path fill="#FFFFFF" d="M259.24,63.045c0.256,0.043,0.419,0.271,0.35,0.486c-0.506,1.555-1.168,2.881-1.987,3.98
		c0.675,0.464,1.279,0.741,1.813,0.834c0.217,0.037,0.387,0.178,0.387,0.367v1.525c0,0.223-0.222,0.414-0.48,0.393
		c-1.031-0.087-2.088-0.454-3.171-1.104c-0.164-0.098-0.386-0.089-0.537,0.022c-1.219,0.891-2.519,1.335-3.898,1.335
		c-1.709,0-3.014-0.526-3.915-1.582c-0.564-0.666-0.848-1.427-0.848-2.284c0-0.84,0.271-1.714,0.813-2.622
		c0.093-0.146,0.398-0.545,0.919-1.194c0.287-0.346,0.576-0.678,0.864-0.999l-0.676-1.155c-0.322-0.536-0.543-0.916-0.656-1.142
		c-0.232-0.441-0.394-0.839-0.486-1.193c-0.103-0.39-0.155-0.771-0.155-1.144c0-0.726,0.214-1.392,0.642-1.998
		c0.438-0.64,1.073-1.119,1.904-1.44c0.658-0.268,1.385-0.401,2.182-0.401c0.889,0,1.703,0.165,2.442,0.499
		c0.738,0.334,1.305,0.794,1.697,1.383c0.312,0.476,0.468,0.99,0.468,1.543c0,0.978-0.457,1.908-1.368,2.791l-0.711,0.688
		c-0.568,0.557-1.098,1.082-1.587,1.577c-0.122,0.124-0.136,0.297-0.043,0.438c0.562,0.852,1.177,1.661,1.845,2.43
		c0.203,0.233,0.646,0.193,0.783-0.072c0.334-0.648,0.608-1.325,0.824-2.029c0.06-0.192,0.278-0.315,0.507-0.277L259.24,63.045z
		 M251.716,68.627c0.657,0,1.355-0.312,2.095-0.934c-0.889-0.856-1.784-1.903-2.684-3.141c-0.208,0.26-0.416,0.527-0.623,0.805
		c-0.348,0.597-0.521,1.151-0.521,1.661c0,0.449,0.133,0.817,0.398,1.103C250.692,68.459,251.138,68.627,251.716,68.627z
		 M250.59,57.558c0,0.484,0.334,1.323,1.005,2.517c0.138-0.129,0.276-0.259,0.415-0.389l0.432-0.429l0.694-0.688
		c0.508-0.501,0.762-0.969,0.762-1.402c0-0.319-0.059-0.565-0.174-0.738c-0.288-0.546-0.762-0.817-1.42-0.817
		c-0.564,0-1.01,0.229-1.332,0.688C250.716,56.662,250.59,57.082,250.59,57.558z"/>
	<path fill="#FFFFFF" d="M73.143,70.624c-0.138,0-0.263-0.077-0.321-0.198l-2.967-6.122h-1.152v5.976
		c0,0.19-0.159,0.345-0.355,0.345h-2.802c-0.196,0-0.355-0.154-0.355-0.345V54.335c0-0.19,0.159-0.345,0.355-0.345h4.871
		c3.822,0,6.267,1.734,6.267,5.18c0,2.193-1.246,3.606-2.986,4.398c-0.179,0.081-0.261,0.281-0.176,0.455l2.978,6.108
		c0.112,0.229-0.061,0.492-0.321,0.492H73.143z M70.248,56.89h-1.545v4.634h1.742c1.799,0,2.726-0.784,2.726-2.306
		C73.17,57.722,72.355,56.89,70.248,56.89z"/>
	<path fill="#FFFFFF" d="M82.896,70.279V54.335c0-0.19,0.159-0.345,0.355-0.345h9.377c0.196,0,0.355,0.154,0.355,0.345v2.162
		c0,0.19-0.159,0.345-0.355,0.345h-5.865c-0.196,0-0.355,0.154-0.355,0.345v2.827c0,0.19,0.159,0.345,0.355,0.345h3.701
		c0.196,0,0.355,0.154,0.355,0.345v2.115c0,0.189-0.159,0.344-0.355,0.344h-3.701c-0.196,0-0.355,0.154-0.355,0.345v3.921
		c0,0.19,0.159,0.345,0.355,0.345h6.118c0.196,0,0.355,0.154,0.355,0.345v2.162c0,0.19-0.159,0.345-0.355,0.345h-9.63
		C83.055,70.624,82.896,70.47,82.896,70.279z"/>
	<path fill="#FFFFFF" d="M104.195,70.885c-2.509,0-4.298-1.05-5.624-2.359c-0.139-0.138-0.129-0.362,0.016-0.494l1.869-1.691
		c0.142-0.128,0.362-0.113,0.496,0.021c1.11,1.112,2.284,1.648,3.383,1.648c1.461,0,2.191-0.688,2.191-1.806
		c0-0.951-0.702-1.711-3.006-2.709c-2.922-1.283-4.693-2.542-4.693-5.299c0-2.495,2.192-4.467,5.508-4.467
		c2.3,0,3.779,0.735,5.116,2.108c0.139,0.142,0.125,0.374-0.026,0.502l-1.811,1.531c-0.138,0.117-0.35,0.104-0.483-0.018
		c-1.005-0.922-1.628-1.249-2.88-1.249c-1.124,0-1.854,0.617-1.854,1.449c0,0.998,0.674,1.616,2.81,2.59
		c3.4,1.544,4.889,2.686,4.889,5.489C110.096,68.89,107.849,70.885,104.195,70.885z"/>
	<path fill="#FFFFFF" d="M122.129,57.187v13.093c0,0.19-0.159,0.345-0.355,0.345h-2.802c-0.196,0-0.355-0.154-0.355-0.345V57.187
		c0-0.19-0.159-0.345-0.355-0.345h-3.364c-0.196,0-0.355-0.154-0.355-0.345v-2.162c0-0.19,0.159-0.345,0.355-0.345h10.951
		c0.196,0,0.355,0.154,0.355,0.345v2.162c0,0.19-0.159,0.345-0.355,0.345h-3.364C122.288,56.842,122.129,56.996,122.129,57.187z"/>
	<path fill="#FFFFFF" d="M138.981,70.366l-0.789-2.953c-0.041-0.152-0.182-0.258-0.344-0.258h-3.862
		c-0.162,0-0.303,0.105-0.344,0.258l-0.79,2.953c-0.041,0.151-0.182,0.258-0.344,0.258h-2.847c-0.237,0-0.408-0.221-0.341-0.441
		l4.822-15.944c0.044-0.147,0.184-0.248,0.341-0.248h2.896c0.158,0,0.296,0.101,0.341,0.248l4.822,15.944
		c0.066,0.221-0.104,0.441-0.341,0.441h-2.875C139.164,70.624,139.022,70.518,138.981,70.366z M136.831,62.402
		c-0.337-1.283-0.787-3.209-0.927-4.04c-0.141,0.855-0.534,2.639-0.899,3.993l-0.307,1.159c-0.115,0.436,0.225,0.86,0.688,0.86
		h1.057c0.466,0,0.806-0.428,0.687-0.864L136.831,62.402z"/>
	<path fill="#FFFFFF" d="M153.862,70.885c-4.187,0-5.845-2.732-5.845-6.866v-9.684c0-0.19,0.159-0.345,0.355-0.345h2.802
		c0.196,0,0.355,0.154,0.355,0.345v9.684c0,2.875,0.759,3.92,2.361,3.92c1.629,0,2.304-1.045,2.304-3.92v-9.684
		c0-0.19,0.159-0.345,0.355-0.345h2.802c0.196,0,0.355,0.154,0.355,0.345v9.636C159.707,68.295,158.189,70.885,153.862,70.885z"/>
	<path fill="#FFFFFF" d="M174.604,70.624c-0.138,0-0.263-0.077-0.322-0.198l-2.967-6.122h-1.152v5.976
		c0,0.19-0.159,0.345-0.355,0.345h-2.802c-0.196,0-0.355-0.154-0.355-0.345V54.335c0-0.19,0.159-0.345,0.355-0.345h4.871
		c3.822,0,6.267,1.734,6.267,5.18c0,2.193-1.246,3.606-2.986,4.398c-0.179,0.081-0.261,0.281-0.177,0.455l2.979,6.108
		c0.111,0.229-0.061,0.492-0.321,0.492H174.604z M171.708,56.89h-1.545v4.634h1.742c1.798,0,2.725-0.784,2.725-2.306
		C174.63,57.722,173.816,56.89,171.708,56.89z"/>
	<path fill="#FFFFFF" d="M192.801,70.366l-0.789-2.953c-0.041-0.152-0.182-0.258-0.344-0.258h-3.862
		c-0.162,0-0.303,0.105-0.344,0.258l-0.789,2.953c-0.041,0.151-0.182,0.258-0.344,0.258h-2.848c-0.237,0-0.408-0.221-0.341-0.441
		l4.822-15.944c0.044-0.147,0.184-0.248,0.341-0.248h2.896c0.158,0,0.297,0.101,0.341,0.248l4.821,15.944
		c0.066,0.221-0.104,0.441-0.341,0.441h-2.875C192.983,70.624,192.842,70.518,192.801,70.366z M190.65,62.402
		c-0.336-1.283-0.787-3.209-0.927-4.04c-0.141,0.855-0.534,2.639-0.9,3.993l-0.306,1.159c-0.115,0.436,0.225,0.86,0.688,0.86h1.057
		c0.466,0,0.806-0.428,0.687-0.864L190.65,62.402z"/>
	<path fill="#FFFFFF" d="M210.97,70.624c-0.137,0-0.262-0.077-0.32-0.197l-3.529-7.217c-0.505-1.046-1.124-2.399-1.488-3.374
		c0.028,1.022,0.057,2.733,0.057,3.777v6.666c0,0.19-0.159,0.345-0.355,0.345h-2.493c-0.196,0-0.355-0.154-0.355-0.345V54.335
		c0-0.19,0.159-0.345,0.355-0.345h2.957c0.139,0,0.265,0.078,0.323,0.201l3.36,7.094c0.478,0.999,1.181,2.543,1.547,3.47
		c-0.028-1.022-0.113-2.828-0.113-3.873v-6.547c0-0.19,0.159-0.345,0.355-0.345h2.493c0.196,0,0.355,0.154,0.355,0.345v15.944
		c0,0.19-0.159,0.345-0.355,0.345H210.97z"/>
	<path fill="#FFFFFF" d="M226.962,70.885c-4.58,0-6.52-3.777-6.52-8.554c0-4.801,1.996-8.602,6.576-8.602
		c2.854,0,4.961,1.222,5.873,3.855c0.064,0.187-0.052,0.396-0.247,0.449l-2.611,0.717c-0.179,0.049-0.36-0.054-0.427-0.222
		c-0.522-1.336-1.388-1.83-2.645-1.83c-2.107,0-2.923,2.043-2.923,5.585c0,3.54,0.872,5.631,2.979,5.631
		c2.028,0,2.714-0.814,2.777-3.014c0.006-0.193-0.159-0.36-0.358-0.36h-2.092c-0.196,0-0.355-0.154-0.355-0.345v-2.091
		c0-0.19,0.159-0.345,0.355-0.345h5.499c0.196,0,0.355,0.154,0.355,0.345v2.507C233.2,68.604,231.064,70.885,226.962,70.885z"/>
	<path fill="#FFFFFF" d="M283.031,70.624h-4.759c-0.196,0-0.355-0.154-0.355-0.345V54.335c0-0.19,0.159-0.345,0.355-0.345h4.956
		c3.597,0,5.845,1.688,5.845,4.443c0,1.189-0.606,2.293-1.75,2.948c-0.238,0.137-0.226,0.467,0.021,0.59
		c1.253,0.622,2.208,1.759,2.208,3.496C289.552,68.89,287.246,70.624,283.031,70.624z M283.257,56.724H281.7
		c-0.195,0-0.354,0.154-0.354,0.344v2.946c0,0.19,0.159,0.345,0.354,0.345h1.641c1.714,0,2.248-0.854,2.248-1.806
		C285.589,57.412,284.971,56.724,283.257,56.724z M283.115,63.021h-1.77v4.526c0,0.189,0.159,0.344,0.354,0.344h1.528
		c1.995,0,2.838-0.973,2.838-2.352C286.066,63.805,285.167,63.021,283.115,63.021z"/>
	<path fill="#FFFFFF" d="M304.008,70.366l-0.788-2.953c-0.041-0.152-0.183-0.258-0.345-0.258h-3.861
		c-0.162,0-0.304,0.105-0.345,0.258l-0.788,2.953c-0.041,0.151-0.183,0.258-0.345,0.258h-2.847c-0.237,0-0.408-0.221-0.342-0.441
		l4.821-15.944c0.044-0.147,0.184-0.248,0.341-0.248h2.897c0.157,0,0.296,0.101,0.341,0.248l4.82,15.944
		c0.067,0.221-0.104,0.441-0.341,0.441h-2.875C304.19,70.624,304.049,70.518,304.008,70.366z M301.857,62.402
		c-0.337-1.283-0.787-3.209-0.928-4.04c-0.14,0.855-0.534,2.639-0.898,3.993l-0.307,1.159c-0.115,0.436,0.225,0.86,0.688,0.86h1.057
		c0.466,0,0.806-0.428,0.688-0.864L301.857,62.402z"/>
	<path fill="#FFFFFF" d="M321.645,70.624c-0.138,0-0.264-0.077-0.322-0.198l-2.967-6.122h-1.152v5.976
		c0,0.19-0.158,0.345-0.354,0.345h-2.802c-0.196,0-0.355-0.154-0.355-0.345V54.335c0-0.19,0.159-0.345,0.355-0.345h4.871
		c3.821,0,6.267,1.734,6.267,5.18c0,2.193-1.246,3.606-2.986,4.398c-0.179,0.081-0.262,0.281-0.177,0.455l2.979,6.108
		c0.111,0.229-0.061,0.492-0.321,0.492H321.645z M318.75,56.89h-1.547v4.634h1.742c1.799,0,2.727-0.784,2.727-2.306
		C321.672,57.722,320.856,56.89,318.75,56.89z"/>
</g>
<g>
	<path fill="#FAF2E6" d="M30.243,0.6c-11.501,0-17.252,0-28.754,0c-0.562,0-1.018,0.456-1.018,1.019c0,2.87,0,4.306,0,7.177
		c0,0.562,0.456,1.018,1.018,1.018c3.305,0,15.65,0.014,15.65,0.014l-6.369,2.426c0,9.806,0,15.229,0,25.491
		c0,0.562,0.456,1.019,1.018,1.019c3.263,0,4.895,0,8.158,0c0.562,0,1.018-0.456,1.018-1.019c0-10.765,0-16.147,0-26.913
		c0-0.562,0.456-1.018,1.018-1.018c3.305,0,4.957,0,8.261,0c0.562,0,1.018-0.456,1.018-1.018c0-2.871,0-4.307,0-7.177
		C31.261,1.056,30.805,0.6,30.243,0.6z"/>
	<path fill="#FAF2E6" d="M64.72,29.875c-6.563,0-9.844,0-16.407,0c-0.562,0-1.018-0.456-1.018-1.018c0-1.803,0-2.704,0-4.507
		c0-0.562,0.456-1.018,1.018-1.018c3.536,0,5.304,0,8.84,0c0.562,0,1.018-0.456,1.018-1.018c0-2.696,0-4.045,0-6.741
		c0-0.562-0.456-1.019-1.018-1.019c-3.536,0-5.304,0-8.84,0c-0.562,0-1.018-0.455-1.018-1.018c0-1.214,0-1.82,0-3.035
		c0-0.562,0.456-1.018,1.018-1.018c6.416,0,9.623,0,16.039,0c0.562,0,1.018-0.455,1.018-1.018c0-2.74,0-4.11,0-6.85
		c0-0.562-0.456-1.019-1.018-1.019c-10.451,0-15.677,0-26.128,0c-0.562,0-1.018,0.456-1.018,1.019c0,14.45,0,21.675,0,36.125
		c0,0.562,0.456,1.019,1.018,1.019c10.599,0,15.897,0,26.496,0c0.562,0,1.018-0.456,1.018-1.019c0-2.74,0-4.11,0-6.851
		C65.737,30.33,65.282,29.875,64.72,29.875z"/>
	<path fill="#FAF2E6" d="M93.936,1.281C93.793,0.873,93.408,0.6,92.975,0.6c-3.542,0-5.312,0-8.854,0
		c-0.433,0-0.818,0.273-0.96,0.682c-5.054,14.451-7.581,21.676-12.634,36.126c-0.231,0.662,0.26,1.354,0.961,1.354
		c3.495,0,5.242,0,8.736,0c0.451,0,0.847-0.296,0.976-0.728c0.625-2.101,0.938-3.15,1.562-5.251
		c0.128-0.432,0.525-0.728,0.976-0.728c3.807,0,5.71,0,9.517,0c0.45,0,0.847,0.296,0.976,0.728c0.625,2.101,0.938,3.15,1.564,5.251
		c0.128,0.432,0.525,0.728,0.976,0.728c3.536,0,5.304,0,8.84,0c0.701,0,1.192-0.692,0.96-1.354
		C101.516,22.957,98.989,15.732,93.936,1.281z M85.448,23.66c0.273-1.003,0.41-1.505,0.684-2.508c0.59-2.182,1.032-3.812,1.382-5.18
		c0.262-1.021,1.705-1.021,1.968-0.001c0.35,1.358,0.79,2.985,1.378,5.181c0.273,1.003,0.409,1.505,0.682,2.508
		C89.105,23.66,87.886,23.66,85.448,23.66z"/>
	<path fill="#FAF2E6" d="M135.564,0.6c-11.502,0-17.252,0-28.754,0c-0.562,0-1.018,0.456-1.018,1.019c0,2.87,0,4.306,0,7.177
		c0,0.562,0.456,1.018,1.018,1.018c3.305,0,15.379,0.014,15.379,0.014l-6.098,2.323c0,9.872,0,15.295,0,25.594
		c0,0.562,0.456,1.019,1.018,1.019c3.263,0,4.895,0,8.158-0.001c0.562,0,1.018-0.455,1.018-1.018c0-10.765,0-16.147,0-26.913
		c0-0.562,0.456-1.018,1.018-1.018c3.305,0,4.957,0,8.262,0c0.562,0,1.018-0.456,1.018-1.018c0-2.871,0-4.307,0-7.177
		C136.581,1.056,136.126,0.6,135.564,0.6z"/>
	<path fill="#FAF2E6" d="M170.04,29.875c-6.563,0-9.844,0-16.407,0c-0.562,0-1.018-0.456-1.018-1.019c0-1.802,0-2.703,0-4.506
		c0-0.562,0.456-1.018,1.018-1.018c3.536,0,5.304,0,8.84,0c0.562,0,1.018-0.456,1.018-1.018c0-2.696,0-4.045,0-6.741
		c0-0.562-0.456-1.019-1.018-1.019c-3.536,0-5.304,0-8.84,0c-0.562,0-1.018-0.455-1.018-1.018c0-1.214,0-1.82,0-3.035
		c0-0.562,0.456-1.018,1.018-1.018c6.416,0,9.624,0,16.039,0c0.562,0,1.018-0.455,1.018-1.018c0-2.74,0-4.11,0-6.85
		c0-0.562-0.456-1.019-1.018-1.019c-10.451,0-15.676,0-26.127,0c-0.562,0-1.018,0.456-1.018,1.019c0,14.45,0,21.675,0,36.125
		c0,0.562,0.456,1.019,1.018,1.019c10.598,0,15.897,0,26.496,0c0.562,0,1.018-0.456,1.018-1.019c0-2.74,0-4.11,0-6.851
		C171.058,30.33,170.603,29.875,170.04,29.875z"/>
	<path fill="#FAF2E6" d="M202.203,25.103c-0.251-0.497-0.045-1.085,0.44-1.359c3.528-1.995,5.727-5.423,5.727-10.713
		c0-9.051-5.726-12.431-14.343-12.431c-6.171,0-9.257,0-15.428,0c-0.562,0-1.018,0.456-1.018,1.019c0,14.45,0,21.675,0,36.125
		c0,0.562,0.456,1.019,1.018,1.019c3.2,0,4.8,0,8,0c0.562,0,1.018-0.456,1.018-1.019c0-4.332,0-6.498,0-10.83
		c0-0.562,0.456-1.018,1.018-1.018c0.973,0,1.458,0,2.431,0c0.396,0,0.755,0.229,0.922,0.588c2.177,4.676,3.266,7.014,5.444,11.689
		c0.167,0.359,0.526,0.589,0.922,0.589c3.64,0,5.459,0,9.099,0c0.759,0,1.25-0.801,0.908-1.478
		C205.897,32.411,204.666,29.975,202.203,25.103z M193.605,17.555c-1.989,0-2.983,0-4.972,0c-0.562,0-1.018-0.456-1.018-1.019
		c0-2.521,0-3.783,0-6.306c0-0.562,0.456-1.018,1.018-1.018c2.052,0,3.078,0,5.129,0c3.205,0,4.466,1.69,4.466,4.089
		C198.229,16.028,196.916,17.555,193.605,17.555z"/>
	<path fill="#FAF2E6" d="M246.086,17.827c-5.66,0-8.49,0-14.149,0c-0.562,0-1.018,0.455-1.018,1.018c0,2.348,0,3.521,0,5.869
		c0,0.562,0.455,1.018,1.018,1.018c1.74,0,2.61,0,4.352,0c0.688,0,1.204,0.68,0.978,1.329c-0.685,1.956-2.273,3.359-5.821,3.359
		c-4.729,0-7.094-3.162-7.094-10.74c0-6.05,1.629-10.467,6.412-10.467c3.167,0,4.677,1.59,5.827,4.292
		c0.219,0.513,0.794,0.771,1.31,0.561c2.953-1.201,4.429-1.802,7.381-3.003c0.516-0.209,0.774-0.804,0.567-1.32
		C243.25,3.231,239.596,0,230.816,0c-11.141,0-17.13,8.396-17.13,19.68c0,12.485,6.884,19.682,16.972,19.682
		c10.665,0,16.446-5.997,16.446-16.9c0-1.446,0-2.17,0-3.616C247.104,18.282,246.648,17.827,246.086,17.827z"/>
	<path fill="#FAF2E6" d="M273.994,1.281c-0.143-0.408-0.527-0.682-0.96-0.682c-3.542,0-5.312,0-8.854,0
		c-0.433,0-0.818,0.273-0.961,0.682c-5.054,14.451-7.58,21.676-12.634,36.126c-0.231,0.662,0.26,1.354,0.961,1.354
		c3.494-0.001,5.241-0.001,8.736-0.001c0.45,0,0.848-0.295,0.976-0.727c0.625-2.101,0.938-3.15,1.562-5.251
		c0.128-0.432,0.525-0.728,0.976-0.728c3.807,0,5.71,0,9.517,0c0.45,0,0.848,0.296,0.976,0.728c0.626,2.101,0.938,3.15,1.564,5.251
		c0.128,0.432,0.524,0.728,0.976,0.728c3.536,0,5.304,0,8.84,0c0.701,0,1.192-0.692,0.961-1.354
		C281.575,22.957,279.047,15.732,273.994,1.281z M265.506,23.66c0.273-1.003,0.41-1.505,0.684-2.508
		c0.591-2.183,1.033-3.813,1.383-5.181c0.262-1.021,1.705-1.021,1.968-0.002c0.35,1.358,0.791,2.986,1.378,5.183
		c0.273,1.003,0.409,1.505,0.683,2.508C269.164,23.66,267.944,23.66,265.506,23.66z"/>
	<path fill="#FAF2E6" d="M316.639,8.795c0-2.871,0-4.307,0-7.177c0-0.562-0.455-1.019-1.018-1.019c-11.502,0-17.252,0-28.754,0
		c-0.562,0-1.018,0.456-1.018,1.019c0,2.87,0,4.306,0,7.177c0,0.562,0.456,1.018,1.018,1.018c3.306,0,15.724,0.014,15.724,0.014
		l-6.442,3c0,9.443,0,14.857,0,24.917c0,0.562,0.456,1.019,1.018,1.019c3.263,0,4.894,0,8.156,0c0.562,0,1.018-0.456,1.018-1.019
		c0-10.765,0-16.147,0-26.913c0-0.562,0.456-1.018,1.019-1.018c3.305,0,4.958,0,8.263,0C316.184,9.812,316.639,9.356,316.639,8.795z
		"/>
	<path fill="#FAF2E6" d="M339.269,1.281c-0.143-0.408-0.528-0.682-0.961-0.682c-3.541,0-5.312,0-8.854,0
		c-0.433,0-0.818,0.273-0.961,0.682c-5.054,14.451-7.581,21.676-12.634,36.126c-0.231,0.662,0.259,1.354,0.96,1.354
		c3.495,0,5.242,0,8.737,0c0.45,0,0.847-0.296,0.976-0.728c0.625-2.101,0.938-3.15,1.562-5.251c0.129-0.432,0.525-0.728,0.976-0.728
		c3.808,0,5.711,0,9.518,0c0.45,0,0.848,0.296,0.976,0.728c0.626,2.101,0.938,3.15,1.563,5.251c0.129,0.432,0.525,0.728,0.976,0.728
		c3.536,0,5.305,0,8.841,0c0.701,0,1.192-0.692,0.961-1.354C346.85,22.957,344.323,15.732,339.269,1.281z M330.782,23.66
		c0.273-1.003,0.41-1.505,0.684-2.508c0.591-2.183,1.032-3.813,1.383-5.181c0.262-1.021,1.705-1.021,1.968-0.002
		c0.35,1.358,0.79,2.986,1.378,5.183c0.273,1.003,0.409,1.505,0.683,2.508C334.438,23.66,333.219,23.66,330.782,23.66z"/>
	<path fill="#FAF2E6" d="M389.903,1.618c0-0.562-0.456-1.019-1.018-1.019c-3.096,0-4.644,0-7.739,0
		c-0.562,0-1.018,0.456-1.018,1.019c0,3.758,0,5.637,0,9.395c0,1.624,0.014,3.784,0.065,5.719c0.027,1.033-1.323,1.445-1.875,0.571
		c-1.221-1.933-2.659-4.104-3.602-5.418c-3.115-4.344-4.673-6.516-7.788-10.86c-0.191-0.267-0.499-0.425-0.827-0.425
		c-2.978,0-4.467,0-7.444,0c-0.562,0-1.018,0.456-1.018,1.019c0,14.45,0,21.675,0,36.125c0,0.562,0.456,1.019,1.018,1.019
		c3.096,0,4.643,0,7.737,0c0.562,0,1.019-0.456,1.019-1.019c0-4.259,0-6.389,0-10.648c0-1.656-0.016-3.87-0.069-5.833
		c-0.028-1.034,1.322-1.442,1.877-0.568c1.233,1.94,2.67,4.13,3.604,5.475c3.389,4.863,5.083,7.295,8.472,12.157
		c0.19,0.273,0.502,0.437,0.835,0.437c2.701-0.001,4.052-0.001,6.753-0.001c0.562,0,1.018-0.455,1.018-1.018
		C389.903,23.293,389.903,16.068,389.903,1.618z"/>
</g>
</svg>
